{
    "kappa_intercept": 0.1276356791930744,
    "path_cluster": "path_to/cluster_file.csv",
    "prior_kappa": {
        "type": "inverse_gamma",
        "scale": 0.005268865061362998,
        "shape": 2
    },
    "PLS": "PLS1",
    "prior_b1": {
        "type": "weibull",
        "shape": 138.1612181,
        "scale": 0.485433615
    },
    "prior_b3": {
        "type": "weibull",
        "shape": 3.43158315,
        "scale": 0.344680462
    },
    "prior_alpha": {
        "type": "normal",
        "mean": 0.739425939743508,
        "stdev": 0.0308298305061347
    },
    "order_params": {
        "alpha": 0,
        "b1": 1,
        "b3": 2,
        "kappa": 3,
        "ncomp_aCH": 4,
        "ncomp_aCOH": 5,
        "ncomp_COOH": 6
    },
    "bounds": [
        [
            -Infinity,
            Infinity
        ],
        [
            -Infinity,
            Infinity
        ],
        [
            -Infinity,
            Infinity
        ],
        [
            -Infinity,
            Infinity
        ],
        [
            -0.5,
            18.5
        ],
        [
            2.5,
            17.5
        ],
        [
            3.5,
            16.5
        ]
    ],
    "prior_ncomp_aCH": [
        -622.6785392,
        -386.5480938,
        -92.87698642,
        -58.68073711,
        -47.23107328,
        -34.85679066,
        -19.91135118,
        -32.98377232,
        -30.2641024,
        -19.90309671,
        -26.04771679,
        -42.89430981,
        -57.65113468,
        -70.24197757,
        -28.44218902,
        -7.244995474,
        -3.997202361,
        -2.188371079,
        -0.140619188
    ],
    "prior_ncomp_aCOH": [
        -Infinity,
        -Infinity,
        -Infinity,
        -318.6786619,
        -165.1154244,
        -117.3743065,
        -77.89148533,
        -55.24622586,
        -51.03453817,
        -36.68142128,
        -26.84135663,
        -13.25858255,
        -12.87076665,
        -16.5052689,
        -14.23600314,
        -0.605802067,
        -0.799064563,
        -5.379773821
        
    ],
    "prior_ncomp_COOH": [
        -Infinity,
        -Infinity,
        -Infinity,
        -Infinity,
        -488.8288882,
        -294.7282734,
        -153.2274245,
        -57.05226663,
        -9.766289784,
        -0.012745804,
        -6.132305806,
        -6.416644968,
        -4.73319555,
        -13.43496044,
        -18.61001579,
        -16.45854442,
        -13.11410277
        
    ]
}